%YAML 1.1
%TAG !u! tag:unity3d.com,2011:
--- !u!114 &11400000
MonoBehaviour:
  m_ObjectHideFlags: 0
  m_CorrespondingSourceObject: {fileID: 0}
  m_PrefabInstance: {fileID: 0}
  m_PrefabAsset: {fileID: 0}
  m_GameObject: {fileID: 0}
  m_Enabled: 1
  m_EditorHideFlags: 0
  m_Script: {fileID: 11500000, guid: 23ba79a6032999348b9df89cdadd9155, type: 3}
  m_Name: Glo02
  m_EditorClassIdentifier: 
  displayName: Gloves02
  description: 
  mesh: {fileID: -7191940374474842466, guid: d985509b415b28143bd021cba446f194, type: 3}
  material: {fileID: 2100000, guid: 14d8d85864a5c57448df5a1944975d25, type: 2}
  sprite: {fileID: 21300000, guid: 153ff1d54a8fdd74ab4186dfbb1c3751, type: 3}
  isItemColorIncludeSkinColor: 0
  itemType: 9
  itemTransform: {fileID: 0}
  hideWhenEquipped: 
