%YAML 1.1
%TAG !u! tag:unity3d.com,2011:
--- !u!114 &11400000
MonoBehaviour:
  m_ObjectHideFlags: 0
  m_CorrespondingSourceObject: {fileID: 0}
  m_PrefabInstance: {fileID: 0}
  m_PrefabAsset: {fileID: 0}
  m_GameObject: {fileID: 0}
  m_Enabled: 1
  m_EditorHideFlags: 0
  m_Script: {fileID: 11500000, guid: 23ba79a6032999348b9df89cdadd9155, type: 3}
  m_Name: H04
  m_EditorClassIdentifier: 
  displayName: Hair04
  description: 
  mesh: {fileID: -1201584539830860895, guid: 7d9ce2ac3b6c63c488ba63dc54afb9a8, type: 3}
  material: {fileID: 1283843827630558818, guid: 7d9ce2ac3b6c63c488ba63dc54afb9a8,
    type: 3}
  sprite: {fileID: 21300000, guid: 0d28fd5483dace741b2406eeb7aed38c, type: 3}
  isItemColorIncludeSkinColor: 0
  itemType: 0
  itemTransform: {fileID: 0}
  hideWhenEquipped: 
