%YAML 1.1
%TAG !u! tag:unity3d.com,2011:
--- !u!1001 &8355438120484484696
PrefabInstance:
  m_ObjectHideFlags: 0
  serializedVersion: 2
  m_Modification:
    m_TransformParent: {fileID: 0}
    m_Modifications:
    - target: {fileID: 4501207139770476986, guid: 8f5aa5a9725234591a8805567925c461,
        type: 3}
      propertyPath: m_OnClick.m_PersistentCalls.m_Calls.Array.data[0].m_Target
      value: 
      objectReference: {fileID: 0}
    - target: {fileID: 6067696467860351015, guid: 8f5aa5a9725234591a8805567925c461,
        type: 3}
      propertyPath: m_Name
      value: Button - Orange
      objectReference: {fileID: 0}
    - target: {fileID: 6067696467860351032, guid: 8f5aa5a9725234591a8805567925c461,
        type: 3}
      propertyPath: m_Pivot.x
      value: 0.5
      objectReference: {fileID: 0}
    - target: {fileID: 6067696467860351032, guid: 8f5aa5a9725234591a8805567925c461,
        type: 3}
      propertyPath: m_Pivot.y
      value: 0.5
      objectReference: {fileID: 0}
    - target: {fileID: 6067696467860351032, guid: 8f5aa5a9725234591a8805567925c461,
        type: 3}
      propertyPath: m_RootOrder
      value: 0
      objectReference: {fileID: 0}
    - target: {fileID: 6067696467860351032, guid: 8f5aa5a9725234591a8805567925c461,
        type: 3}
      propertyPath: m_AnchorMax.x
      value: 0.5
      objectReference: {fileID: 0}
    - target: {fileID: 6067696467860351032, guid: 8f5aa5a9725234591a8805567925c461,
        type: 3}
      propertyPath: m_AnchorMax.y
      value: 0.5
      objectReference: {fileID: 0}
    - target: {fileID: 6067696467860351032, guid: 8f5aa5a9725234591a8805567925c461,
        type: 3}
      propertyPath: m_AnchorMin.x
      value: 0.5
      objectReference: {fileID: 0}
    - target: {fileID: 6067696467860351032, guid: 8f5aa5a9725234591a8805567925c461,
        type: 3}
      propertyPath: m_AnchorMin.y
      value: 0.5
      objectReference: {fileID: 0}
    - target: {fileID: 6067696467860351032, guid: 8f5aa5a9725234591a8805567925c461,
        type: 3}
      propertyPath: m_SizeDelta.x
      value: 260
      objectReference: {fileID: 0}
    - target: {fileID: 6067696467860351032, guid: 8f5aa5a9725234591a8805567925c461,
        type: 3}
      propertyPath: m_SizeDelta.y
      value: 100
      objectReference: {fileID: 0}
    - target: {fileID: 6067696467860351032, guid: 8f5aa5a9725234591a8805567925c461,
        type: 3}
      propertyPath: m_LocalPosition.x
      value: 0
      objectReference: {fileID: 0}
    - target: {fileID: 6067696467860351032, guid: 8f5aa5a9725234591a8805567925c461,
        type: 3}
      propertyPath: m_LocalPosition.y
      value: 0
      objectReference: {fileID: 0}
    - target: {fileID: 6067696467860351032, guid: 8f5aa5a9725234591a8805567925c461,
        type: 3}
      propertyPath: m_LocalPosition.z
      value: 0
      objectReference: {fileID: 0}
    - target: {fileID: 6067696467860351032, guid: 8f5aa5a9725234591a8805567925c461,
        type: 3}
      propertyPath: m_LocalRotation.w
      value: 1
      objectReference: {fileID: 0}
    - target: {fileID: 6067696467860351032, guid: 8f5aa5a9725234591a8805567925c461,
        type: 3}
      propertyPath: m_LocalRotation.x
      value: 0
      objectReference: {fileID: 0}
    - target: {fileID: 6067696467860351032, guid: 8f5aa5a9725234591a8805567925c461,
        type: 3}
      propertyPath: m_LocalRotation.y
      value: 0
      objectReference: {fileID: 0}
    - target: {fileID: 6067696467860351032, guid: 8f5aa5a9725234591a8805567925c461,
        type: 3}
      propertyPath: m_LocalRotation.z
      value: 0
      objectReference: {fileID: 0}
    - target: {fileID: 6067696467860351032, guid: 8f5aa5a9725234591a8805567925c461,
        type: 3}
      propertyPath: m_AnchoredPosition.x
      value: 0
      objectReference: {fileID: 0}
    - target: {fileID: 6067696467860351032, guid: 8f5aa5a9725234591a8805567925c461,
        type: 3}
      propertyPath: m_AnchoredPosition.y
      value: 0
      objectReference: {fileID: 0}
    - target: {fileID: 6067696467860351032, guid: 8f5aa5a9725234591a8805567925c461,
        type: 3}
      propertyPath: m_LocalEulerAnglesHint.x
      value: 0
      objectReference: {fileID: 0}
    - target: {fileID: 6067696467860351032, guid: 8f5aa5a9725234591a8805567925c461,
        type: 3}
      propertyPath: m_LocalEulerAnglesHint.y
      value: 0
      objectReference: {fileID: 0}
    - target: {fileID: 6067696467860351032, guid: 8f5aa5a9725234591a8805567925c461,
        type: 3}
      propertyPath: m_LocalEulerAnglesHint.z
      value: 0
      objectReference: {fileID: 0}
    - target: {fileID: 6067696468438814954, guid: 8f5aa5a9725234591a8805567925c461,
        type: 3}
      propertyPath: m_Sprite
      value: 
      objectReference: {fileID: 21300000, guid: bb40f8af572004e14a9f514f828af95e,
        type: 3}
    - target: {fileID: 7016391421997232863, guid: 8f5aa5a9725234591a8805567925c461,
        type: 3}
      propertyPath: m_text
      value: Orange
      objectReference: {fileID: 0}
    - target: {fileID: 7016391421997232863, guid: 8f5aa5a9725234591a8805567925c461,
        type: 3}
      propertyPath: m_textInfo.wordCount
      value: 1
      objectReference: {fileID: 0}
    - target: {fileID: 7016391421997232863, guid: 8f5aa5a9725234591a8805567925c461,
        type: 3}
      propertyPath: m_textInfo.spaceCount
      value: 0
      objectReference: {fileID: 0}
    - target: {fileID: 7016391421997232863, guid: 8f5aa5a9725234591a8805567925c461,
        type: 3}
      propertyPath: m_textInfo.characterCount
      value: 6
      objectReference: {fileID: 0}
    m_RemovedComponents:
    - {fileID: 6067696467860351033, guid: 8f5aa5a9725234591a8805567925c461, type: 3}
  m_SourcePrefab: {fileID: 100100000, guid: 8f5aa5a9725234591a8805567925c461, type: 3}
