%YAML 1.1
%TAG !u! tag:unity3d.com,2011:
--- !u!114 &11400000
MonoBehaviour:
  m_ObjectHideFlags: 0
  m_CorrespondingSourceObject: {fileID: 0}
  m_PrefabInstance: {fileID: 0}
  m_PrefabAsset: {fileID: 0}
  m_GameObject: {fileID: 0}
  m_Enabled: 1
  m_EditorHideFlags: 0
  m_Script: {fileID: 11500000, guid: 95651ab478657c947814b17e70370052, type: 3}
  m_Name: BrianPoliceStory
  m_EditorClassIdentifier: Assembly-CSharp::ResidentStory
  _stories:
  - Hi, I'm Brian, I'm a police officer in this area.
  - If you have any problems please contact me.
