{
  "project_info": {
    "project_number": "456147079102",
    "firebase_url": "https://toonworld-gra-default-rtdb.asia-southeast1.firebasedatabase.app",
    "project_id": "toonworld-gra",
    "storage_bucket": "toonworld-gra.appspot.com"
  },
  "client": [
    {
      "client_info": {
        "mobilesdk_app_id": "1:456147079102:android:9f4005657ab3b29845f3ef",
        "android_client_info": {
          "package_name": "com.DefaultCompany.Metaverse"
        }
      },
      "oauth_client": [
        {
          "client_id": "456147079102-hoivraqrmqa7o8irkcotopvfcamvtt6f.apps.googleusercontent.com",
          "client_type": 3
        }
      ],
      "api_key": [
        {
          "current_key": "AIzaSyBBR9Z7hsZWgMTh2HU2WIGkzjMJBivjJQA"
        }
      ],
      "services": {
        "appinvite_service": {
          "other_platform_oauth_client": [
            {
              "client_id": "456147079102-hoivraqrmqa7o8irkcotopvfcamvtt6f.apps.googleusercontent.com",
              "client_type": 3
            }
          ]
        }
      }
    }
  ],
  "configuration_version": "1"
}