%YAML 1.1
%TAG !u! tag:unity3d.com,2011:
--- !u!114 &11400000
MonoBehaviour:
  m_ObjectHideFlags: 0
  m_CorrespondingSourceObject: {fileID: 0}
  m_PrefabInstance: {fileID: 0}
  m_PrefabAsset: {fileID: 0}
  m_GameObject: {fileID: 0}
  m_Enabled: 1
  m_EditorHideFlags: 0
  m_Script: {fileID: 11500000, guid: ffcb81e07601dd2488874c608dc3a079, type: 3}
  m_Name: Shield
  m_EditorClassIdentifier: 
  icon: {fileID: 21300000, guid: eef1f74a17cb744d0b68b672436fa959, type: 3}
  giftName: 2
